C:\Users\Angels\eclipse-workspace\AdminMicroservices\src\main\java\com\greatlearning\adminservices\serviceImpl\UserServiceImpl.java
C:\Users\Angels\eclipse-workspace\AdminMicroservices\src\main\java\com\greatlearning\adminservices\controller\AuditController.java
C:\Users\Angels\eclipse-workspace\AdminMicroservices\src\main\java\com\greatlearning\adminservices\entity\Audit.java
C:\Users\Angels\eclipse-workspace\AdminMicroservices\src\main\java\com\greatlearning\adminservices\serviceImpl\AuditServiceImpl.java
C:\Users\Angels\eclipse-workspace\AdminMicroservices\src\main\java\com\greatlearning\adminservices\config\SwaggerConfig.java
C:\Users\Angels\eclipse-workspace\AdminMicroservices\src\main\java\com\greatlearning\adminservices\service\UserServices.java
C:\Users\Angels\eclipse-workspace\AdminMicroservices\src\main\java\com\greatlearning\adminservices\repository\UserRepository.java
C:\Users\Angels\eclipse-workspace\AdminMicroservices\src\main\java\com\greatlearning\adminservices\entity\User.java
C:\Users\Angels\eclipse-workspace\AdminMicroservices\src\main\java\com\greatlearning\adminservices\controller\AdminViewController.java
C:\Users\Angels\eclipse-workspace\AdminMicroservices\src\main\java\com\greatlearning\adminservices\entity\MaxSales.java
C:\Users\Angels\eclipse-workspace\AdminMicroservices\src\main\java\com\greatlearning\adminservices\controller\AdminController.java
C:\Users\Angels\eclipse-workspace\AdminMicroservices\src\main\java\com\greatlearning\adminservices\AdminMicroservices.java
C:\Users\Angels\eclipse-workspace\AdminMicroservices\src\main\java\com\greatlearning\adminservices\entity\Items.java
C:\Users\Angels\eclipse-workspace\AdminMicroservices\src\main\java\com\greatlearning\adminservices\repository\AuditRepository.java
C:\Users\Angels\eclipse-workspace\AdminMicroservices\src\main\java\com\greatlearning\adminservices\service\AuditService.java
